Getting Started with Modeltime H2O
…
Finally, we predict() on the test dataset:

predict(model_fitted, test_tbl)
#> 
  |                                                                            
  |                                                                      |   0%
  |                                                                            
  |======================================================================| 100%
#> 
  |                                                                            
  |                                                                      |   0%
  |                                                                            
  |======================================================================| 100%
#> # A tibble: 84 x 1
#>      .pred
#>      <dbl>
#>  1  18396.
#>  2  31732.
#>  3  38593.
#>  4  40830.
#>  5  74870.
#>  6  82097.
#>  7 135766.
#>  8  17851.
#>  9  36977.
#> 10  37434.
#> #  with 74 more rows
…
